<svg width="12" height="12" viewBox="0 0 12 12" xmlns="http://www.w3.org/2000/svg">
<g transform="scale(1,1)" >
<g transform="translate(2)" >
<path d="M7.41 10.59L2.83 6L7.41 1.41L6 0L0 6L6 12L7.41 10.59Z"/>
</g>
</g>
</svg>
